%YAML 1.1
%TAG !u! tag:unity3d.com,2011:
--- !u!1045 &1
EditorBuildSettings:
  m_ObjectHideFlags: 0
  serializedVersion: 2
  m_Scenes:
  - enabled: 1
    path: Assets/Scenes/Testing.unity
    guid: 562f8dbe2b803354b904ab497c3f482d
  m_configObjects:
    com.unity.xr.management.loader_settings: {fileID: 11400000, guid: ba55aa469ec33794f933f1f7e489130b,
      type: 2}
